module github.com/SeaCloudHub/notification-hub

go 1.22.0

require (
	github.com/getsentry/sentry-go v0.25.0
	github.com/googollee/go-socket.io v1.4.4
	github.com/jmoiron/sqlx v1.3.5
	github.com/joho/godotenv v1.5.1
	github.com/kelseyhightower/envconfig v1.4.0
	github.com/labstack/echo/v4 v4.11.3
	github.com/lib/pq v1.10.9
	github.com/ory/kratos-client-go v1.1.0
	github.com/rubenv/sql-migrate v1.5.2
	github.com/stretchr/testify v1.8.4
	github.com/testcontainers/testcontainers-go v0.26.0
	github.com/testcontainers/testcontainers-go/modules/postgres v0.26.0
	go.uber.org/zap v1.26.0
	gorm.io/driver/postgres v1.5.7
	gorm.io/gorm v1.25.9
)

require (
	github.com/creack/pty v1.1.21 // indirect
	github.com/gabriel-vasile/mimetype v1.4.3 // indirect
	github.com/go-playground/locales v0.14.1 // indirect
	github.com/go-playground/universal-translator v0.18.1 // indirect
	github.com/go-sql-driver/mysql v1.7.1 // indirect
	github.com/gobuffalo/logger v1.0.7 // indirect
	github.com/gobuffalo/packd v1.0.2 // indirect
	github.com/gofrs/uuid v4.0.0+incompatible // indirect
	github.com/gomodule/redigo v1.8.4 // indirect
	github.com/gorilla/websocket v1.5.1 // indirect
	github.com/gosimple/slug v1.13.1 // indirect
	github.com/gosimple/unidecode v1.0.1 // indirect
	github.com/jackc/pgpassfile v1.0.0 // indirect
	github.com/jackc/pgservicefile v0.0.0-20221227161230-091c0ba34f0a // indirect
	github.com/jackc/pgx/v5 v5.4.3 // indirect
	github.com/jinzhu/inflection v1.0.0 // indirect
	github.com/jinzhu/now v1.1.5 // indirect
	github.com/leodido/go-urn v1.4.0 // indirect
	github.com/mattn/go-sqlite3 v2.0.1+incompatible // indirect
	github.com/pingcap/errors v0.11.5-0.20211224045212-9687c2b0f87c // indirect
	github.com/rogpeppe/go-internal v1.12.0 // indirect
	github.com/segmentio/go-camelcase v0.0.0-20160726192923-7085f1e3c734 // indirect
	github.com/segmentio/go-snakecase v1.2.0 // indirect
	go.uber.org/atomic v1.11.0 // indirect
	go.uber.org/goleak v1.2.1 // indirect
)

require (
	dario.cat/mergo v1.0.0 // indirect
	github.com/Azure/go-ansiterm v0.0.0-20230124172434-306776ec8161 // indirect
	github.com/Microsoft/go-winio v0.6.1 // indirect
	github.com/Microsoft/hcsshim v0.11.4 // indirect
	github.com/cenkalti/backoff/v4 v4.2.1 // indirect
	github.com/containerd/containerd v1.7.9 // indirect
	github.com/containerd/log v0.1.0 // indirect
	github.com/cpuguy83/dockercfg v0.3.1 // indirect
	github.com/davecgh/go-spew v1.1.2-0.20180830191138-d8f796af33cc // indirect
	github.com/distribution/reference v0.5.0 // indirect
	github.com/docker/distribution v2.8.3+incompatible // indirect
	github.com/docker/docker v24.0.7+incompatible // indirect
	github.com/docker/go-connections v0.4.0 // indirect
	github.com/docker/go-units v0.5.0 // indirect
	github.com/go-gorp/gorp/v3 v3.1.0 // indirect
	github.com/go-ole/go-ole v1.3.0 // indirect
	github.com/go-playground/mold/v4 v4.5.0
	github.com/go-playground/validator/v10 v10.18.0
	github.com/gogo/protobuf v1.3.2 // indirect
	github.com/golang-jwt/jwt v3.2.2+incompatible // indirect
	github.com/golang/protobuf v1.5.3 // indirect
	github.com/google/uuid v1.6.0 // indirect
	github.com/klauspost/compress v1.17.3 // indirect
	github.com/labstack/gommon v0.4.0 // indirect
	github.com/lufia/plan9stats v0.0.0-20231016141302-07b5767bb0ed // indirect
	github.com/magiconair/properties v1.8.7 // indirect
	github.com/mattn/go-colorable v0.1.13 // indirect
	github.com/mattn/go-isatty v0.0.20 // indirect
	github.com/moby/patternmatcher v0.6.0 // indirect
	github.com/moby/sys/sequential v0.5.0 // indirect
	github.com/moby/term v0.5.0 // indirect
	github.com/morikuni/aec v1.0.0 // indirect
	github.com/opencontainers/go-digest v1.0.0 // indirect
	github.com/opencontainers/image-spec v1.1.0-rc5 // indirect
	github.com/opencontainers/runc v1.1.12 // indirect
	github.com/pkg/errors v0.9.1
	github.com/pmezard/go-difflib v1.0.1-0.20181226105442-5d4384ee4fb2 // indirect
	github.com/power-devops/perfstat v0.0.0-20221212215047-62379fc7944b // indirect
	github.com/shirou/gopsutil/v3 v3.24.1 // indirect
	github.com/shoenig/go-m1cpu v0.1.6 // indirect
	github.com/sirupsen/logrus v1.9.3 // indirect
	github.com/tklauser/go-sysconf v0.3.12 // indirect
	github.com/tklauser/numcpus v0.6.1 // indirect
	github.com/valyala/bytebufferpool v1.0.0 // indirect
	github.com/valyala/fasttemplate v1.2.2 // indirect
	github.com/yusufpapurcu/wmi v1.2.3 // indirect
	go.uber.org/multierr v1.11.0 // indirect
	golang.org/x/crypto v0.20.0 // indirect
	golang.org/x/exp v0.0.0-20231110203233-9a3e6036ecaa // indirect
	golang.org/x/mod v0.15.0 // indirect
	golang.org/x/net v0.21.0 // indirect
	golang.org/x/sys v0.18.0 // indirect
	golang.org/x/text v0.14.0 // indirect
	golang.org/x/time v0.5.0 // indirect
	golang.org/x/tools v0.18.0 // indirect
	google.golang.org/genproto/googleapis/rpc v0.0.0-20240213162025-012b6fc9bca9 // indirect
	google.golang.org/grpc v1.61.1 // indirect
	google.golang.org/protobuf v1.33.0 // indirect
	gopkg.in/yaml.v3 v3.0.1 // indirect
)
